Vignette: Generate your own ggplot theme gallery
…
plot_base

## # A tibble: 4 x 2
##   plot         plot_names  
##   <named list> <chr>       
## 1 <gg>         bar plot    
## 2 <gg>         box plot    
## 3 <gg>         scatter plot
## 4 <gg>         density plot

theme_base

## # A tibble: 25 x 2
##    theme        theme_names                      
##    <named list> <chr>                            
##  1 <theme>      ggplot2::theme_minimal()         
##  2 <theme>      ggplot2::theme_classic()         
##  3 <theme>      ggplot2::theme_bw()              
##  4 <theme>      ggplot2::theme_gray()            
##  5 <theme>      ggplot2::theme_linedraw()        
##  6 <theme>      ggplot2::theme_light()           
##  7 <theme>      ggplot2::theme_dark()            
##  8 <theme>      ggthemes::theme_economist()      
##  9 <theme>      ggthemes::theme_economist_white()
## 10 <theme>      ggthemes::theme_calc()           
## # ... with 15 more rows
…
all_combos <-
  expand_grid(plot_names = plot_base$plot_names,
              theme_names = theme_base$theme_names)
  
iter_df <-
  all_combos %>%
  left_join(plot_base, by = "plot_names") %>%
  left_join(theme_base, by = "theme_names") %>%
  select(theme_names, theme, plot_names, plot) # Reorder columns

iter_df

## # A tibble: 100 x 4
##    theme_names                       theme   plot_names plot  
##    <chr>                             <list>  <chr>      <list>
##  1 ggplot2::theme_minimal()          <theme> bar plot   <gg>  
##  2 ggplot2::theme_classic()          <theme> bar plot   <gg>  
##  3 ggplot2::theme_bw()               <theme> bar plot   <gg>  
##  4 ggplot2::theme_gray()             <theme> bar plot   <gg>  
##  5 ggplot2::theme_linedraw()         <theme> bar plot   <gg>  
##  6 ggplot2::theme_light()            <theme> bar plot   <gg>  
##  7 ggplot2::theme_dark()             <theme> bar plot   <gg>  
##  8 ggthemes::theme_economist()       <theme> bar plot   <gg>  
##  9 ggthemes::theme_economist_white() <theme> bar plot   <gg>  
## 10 ggthemes::theme_calc()            <theme> bar plot   <gg>  
## # ... with 90 more rows
…
